{
  "project_info": {
    "project_number": "185862391769",
    "firebase_url": "https://trashman-43253591.firebaseio.com",
    "project_id": "trashman-43253591",
    "storage_bucket": "trashman-43253591.appspot.com"
  },
  "client": [
    {
      "client_info": {
        "mobilesdk_app_id": "1:185862391769:android:1f6370ff4b2997cb",
        "android_client_info": {
          "package_name": "com.rizki.trash"
        }
      },
      "oauth_client": [
        {
          "client_id": "185862391769-825m60eekemsic1e3hqksp29k4ccl9j6.apps.googleusercontent.com",
          "client_type": 3
        }
      ],
      "api_key": [
        {
          "current_key": "AIzaSyArJFoN_voi-v6ueba-Z1i-fX_HPiYn-ZY"
        }
      ],
      "services": {
        "appinvite_service": {
          "other_platform_oauth_client": [
            {
              "client_id": "185862391769-825m60eekemsic1e3hqksp29k4ccl9j6.apps.googleusercontent.com",
              "client_type": 3
            }
          ]
        }
      }
    }
  ],
  "configuration_version": "1"
}